{
  "title": "JSON schema for Creatomic configuration file",
  "$schema": "http://json-schema.org/draft-04/schema#",
  "type": "object",
  "properties": {
    "tslint.enable": {
      "type": "boolean",
      "default": true,
      "description": "Control whether tslint is enabled for TypeScript files or not."
    },
    "tslint.jsEnable": {
      "type": "boolean",
      "default": false,
      "description": "Control whether tslint is enabled for JavaScript files or not."
    },
    "tslint.rulesDirectory": {
      "type": [
        "string",
        "array"
      ],
      "items": {
        "type": "string"
      },
      "description": "An additional rules directory",
      "default": ""
    },
    "tslint.validateWithDefaultConfig": {
      "type": "boolean",
      "description": "Validate a file when there is only a default tslint configuration is found",
      "default": false
    },
    "tslint.configFile": {
      "type": "string",
      "description": "The path to the rules configuration file",
      "default": ""
    },
    "tslint.ignoreDefinitionFiles": {
      "type": "boolean",
      "default": true,
      "description": "Control if TypeScript definition files should be ignored"
    },
    "tslint.exclude": {
      "type": [
        "string",
        "array"
      ],
      "items": {
        "type": "string"
      },
      "description": "Configure glob patterns of file paths to exclude from linting"
    },
    "tslint.run": {
      "type": "string",
      "enum": [
        "onSave",
        "onType"
      ],
      "default": "onType",
      "description": "Run the linter on save (onSave) or on type (onType)"
    },
    "tslint.nodePath": {
      "type": "string",
      "default": "",
      "description": "A path added to NODE_PATH when resolving the tslint module."
    },
    "tslint.autoFixOnSave": {
      "type": [
        "boolean",
        "array"
      ],
      "items": {
        "type": "string"
      },
      "default": false,
      "description": "Turns auto fix on save on or off, or defines which rules (e.g. `no-var-keyword`) to auto fix on save."
    },
    "tslint.alwaysShowRuleFailuresAsWarnings": {
      "type": "boolean",
      "default": false,
      "description": "Always show rule failures as warnings, independent of the tslint configuration."
    }
  }
}
