{
  "title": "JSON schema for beautifyrc",
  "$schema": "http://json-schema.org/draft-04/schema#",
  "id": "http://json.schemastore.org/jsbeautifyrc-nested",
  "type": "object",
  "allOf": [
    { "$ref": "http://json.schemastore.org/jsbeautifyrc#/definitions/CHJProperties" },
    { "$ref": "http://json.schemastore.org/jsbeautifyrc#/definitions/HJProperties" },
    { "$ref": "http://json.schemastore.org/jsbeautifyrc#/definitions/CProperties" },
    { "$ref": "http://json.schemastore.org/jsbeautifyrc#/definitions/HProperties" },
    { "$ref": "http://json.schemastore.org/jsbeautifyrc#/definitions/JProperties" },
    {
      "properties": {
        "css": {
          "type": "object",
          "allOf": [
            { "$ref": "http://json.schemastore.org/jsbeautifyrc#/definitions/CHJProperties" },
            { "$ref": "http://json.schemastore.org/jsbeautifyrc#/definitions/CProperties" }
            ]
        },
        "js": {
          "type": "object",
          "allOf": [
            { "$ref": "http://json.schemastore.org/jsbeautifyrc#/definitions/CHJProperties" },
            { "$ref": "http://json.schemastore.org/jsbeautifyrc#/definitions/HJProperties" },
            { "$ref": "http://json.schemastore.org/jsbeautifyrc#/definitions/JProperties" }
            ]
        },
        "html": {
          "type": "object",
          "allOf": [
            { "$ref": "http://json.schemastore.org/jsbeautifyrc#/definitions/CHJProperties" },
            { "$ref": "http://json.schemastore.org/jsbeautifyrc#/definitions/HJProperties" },
            { "$ref": "http://json.schemastore.org/jsbeautifyrc#/definitions/HProperties" }
            ]
        }
      }
    }]
}
