REQUIRED: [54, 19, 0, 6, 0, 1, 2, 3, 15, 0, 18, 0, 0, 0, 1, 0, 0, 1, 0, 34, 0, 6, 0, 15, 5, 13, 3, 1, 1654, 16, 5, 0, 4, 1, 0, 0, 1, 0, 0, 0, 0, 0, 9, 1, 0, 16, 5, 0, 0, 1, 0, 0, 17, 0, 0, 0, 5, 1, 0, 11, 0, 0, 1, 91, 0, 9, 1, 0, 0, 22, 0, 4, 7, 0, 0, 2, 0, 3, 4, 1, 0, 0, 1, 1, 19, 8, 1, 1, 321, 2, 0, 6, 3, 1, 0, 1, 0, 0, 0, 6, 0, 1, 0, 0, 1, 1694, 0, 19, 0, 1, 7, 4, 4, 1, 1, 0, 0, 6, 24, 18, 0, 14, 2]
OPTIONAL: [149, 119, 7, 17, 73, 79, 22, 114, 26, 30, 59, 4, 10, 61, 12, 51, 28, 41, 69, 90, 38, 85, 2, 103, 2, 16, 2, 10, 4115, 80, 11, 12, 5, 12, 40, 9, 24, 9, 1, 34, 7, 2, 13, 14, 3, 65, 22, 44, 39, 348, 3, 33, 33, 14, 7, 14, 2, 17, 39, 52, 271, 73, 11, 1087, 0, 16, 3, 25, 34, 40, 138, 16, 67, 21, 66, 28, 6, 93, 287, 572, 6, 6, 20, 24, 152, 175, 10, 1, 567, 14, 3, 27, 39, 57, 15, 21, 27, 6, 95, 36, 44, 15, 44, 11, 8, 4177, 56, 167, 20, 85, 4, 16, 3, 14, 12, 5, 66, 10, 162, 131, 23, 30, 29]
MULT: [(1, 1, 19), (0, 0, 0), (0, 1, 0), (0, 0, 0), (0, 0, 0), (1, 2, 0), (2, 1, 1), (1, 0, 10), (14, 1, 5), (4, 0, 6), (0, 0, 11), (0, 0, 0), (0, 0, 0), (0, 0, 0), (0, 0, 0), (0, 0, 0), (0, 0, 0), (0, 0, 1), (0, 0, 0), (0, 1, 0), (0, 0, 1), (1, 3, 0), (0, 0, 0), (0, 6, 9), (0, 0, 0), (0, 0, 0), (0, 0, 0), (0, 8, 4), (0, 284, 0), (5, 3, 2), (0, 1, 1), (0, 0, 0), (1, 0, 1), (0, 5, 0), (1, 0, 0), (6, 0, 0), (5, 0, 0), (0, 0, 0), (0, 0, 0), (0, 0, 0), (1, 0, 0), (0, 2, 0), (0, 1, 0), (1, 0, 1), (0, 0, 0), (0, 0, 1), (3, 1, 0), (0, 0, 0), (1, 5, 0), (1, 0, 3), (0, 0, 0), (0, 0, 0), (0, 0, 0), (0, 0, 0), (1, 0, 0), (0, 0, 0), (0, 0, 0), (0, 0, 0), (0, 0, 0), (1, 2, 8), (34, 54, 53), (0, 0, 0), (0, 0, 0), (0, 149, 0), (0, 0, 0), (0, 0, 1), (0, 0, 0), (0, 0, 0), (0, 0, 0), (0, 2, 6), (4, 0, 1), (0, 0, 1), (0, 0, 0), (0, 0, 0), (0, 0, 0), (1, 0, 1), (0, 0, 0), (1, 1, 0), (0, 16, 188), (144, 6, 70), (0, 1, 0), (0, 0, 0), (1, 0, 1), (5, 0, 0), (0, 0, 0), (3, 1, 35), (0, 1, 2), (0, 0, 0), (34, 153, 274), (0, 0, 0), (4, 0, 0), (0, 0, 0), (2, 0, 1), (0, 0, 0), (1, 3, 0), (0, 2, 4), (0, 0, 0), (0, 0, 0), (1, 5, 0), (1, 0, 0), (1, 0, 0), (0, 1, 1), (28, 0, 0), (0, 0, 0), (0, 0, 0), (0, 292, 0), (0, 0, 0), (0, 0, 0), (0, 0, 0), (2, 2, 9), (2, 0, 1), (1, 1, 0), (0, 0, 0), (0, 0, 0), (0, 1, 0), (0, 2, 0), (0, 0, 0), (1, 2, 0), (0, 0, 4), (0, 0, 0), (0, 0, 0), (12, 1, 1), (0, 0, 3)]
TCP: [(7, 2, 0, 1, 8, 51, 4), (68, 0, 3, 14, 8, 49, 0), (3, 0, 0, 1, 1, 2, 0), (19, 0, 0, 0, 2, 5, 0), (63, 0, 0, 7, 23, 13, 0), (20, 1, 0, 46, 9, 5, 0), (6, 0, 3, 4, 1, 6, 0), (51, 0, 0, 5, 2, 1, 0), (5, 3, 0, 0, 6, 5, 3), (1, 0, 0, 1, 7, 11, 0), (45, 0, 1, 4, 12, 46, 0), (3, 0, 0, 1, 2, 1, 0), (0, 0, 2, 6, 0, 1, 0), (59, 0, 0, 3, 24, 10, 0), (6, 0, 1, 1, 2, 2, 0), (34, 0, 0, 4, 10, 11, 0), (21, 1, 0, 4, 4, 5, 0), (6, 0, 13, 2, 2, 12, 0), (36, 3, 3, 10, 12, 4, 2), (38, 1, 0, 8, 21, 24, 0), (22, 0, 0, 2, 5, 5, 0), (50, 0, 1, 7, 11, 18, 0), (0, 0, 1, 1, 0, 1, 0), (31, 9, 4, 0, 14, 31, 6), (5, 1, 0, 0, 2, 2, 0), (17, 0, 1, 0, 7, 9, 0), (2, 0, 0, 0, 2, 3, 0), (12, 0, 0, 0, 4, 1, 0), (3357, 311, 0, 241, 784, 1520, 0), (45, 0, 3, 3, 11, 12, 0), (9, 0, 0, 0, 2, 2, 0), (12, 0, 0, 1, 1, 1, 0), (5, 0, 0, 0, 1, 1, 0), (5, 0, 0, 0, 1, 3, 0), (12, 0, 0, 6, 11, 13, 0), (1, 0, 0, 0, 1, 1, 0), (8, 0, 1, 6, 0, 8, 0), (3, 0, 0, 3, 0, 4, 0), (0, 0, 0, 0, 0, 2, 0), (12, 0, 2, 11, 3, 11, 0), (2, 1, 0, 1, 0, 3, 0), (2, 0, 0, 0, 0, 2, 0), (17, 1, 0, 2, 4, 4, 0), (7, 0, 3, 0, 4, 2, 1), (2, 0, 0, 1, 0, 1, 0), (31, 19, 0, 22, 3, 0, 0), (8, 0, 1, 5, 3, 4, 0), (16, 0, 0, 9, 2, 10, 0), (7, 3, 1, 5, 4, 5, 0), (9, 0, 1, 52, 6, 8, 0), (3, 0, 0, 0, 2, 1, 0), (0, 0, 0, 0, 0, 1, 0), (16, 1, 1, 0, 6, 10, 0), (4, 0, 0, 5, 0, 3, 0), (3, 1, 0, 0, 0, 3, 1), (13, 0, 0, 1, 1, 8, 0), (6, 0, 0, 0, 1, 1, 0), (15, 0, 0, 1, 7, 8, 0), (23, 0, 0, 3, 8, 10, 0), (18, 0, 0, 0, 4, 15, 6), (165, 0, 18, 66, 136, 91, 104), (63, 0, 0, 7, 23, 13, 0), (4, 0, 0, 0, 1, 3, 0), (334, 329, 0, 84, 104, 135, 16), (0, 0, 0, 0, 0, 1, 0), (9, 0, 2, 0, 1, 7, 0), (2, 0, 0, 1, 3, 2, 0), (21, 0, 0, 7, 6, 5, 0), (15, 11, 0, 10, 2, 3, 0), (33, 0, 2, 2, 7, 5, 0), (106, 0, 0, 18, 38, 24, 0), (19, 0, 0, 2, 2, 7, 0), (36, 1, 12, 7, 9, 20, 0), (19, 0, 0, 1, 11, 2, 0), (4, 0, 6, 61, 0, 4, 0), (2, 0, 0, 2, 1, 1, 0), (4, 0, 0, 1, 1, 1, 0), (56, 0, 0, 3, 9, 14, 0), (117, 0, 24, 285, 92, 130, 192), (114, 9, 0, 154, 77, 30, 0), (1, 0, 0, 2, 1, 3, 0), (2, 0, 2, 2, 0, 1, 0), (4, 1, 2, 7, 3, 3, 0), (8, 0, 1, 6, 0, 8, 0), (80, 0, 18, 1, 29, 38, 0), (108, 1, 1, 25, 62, 31, 0), (10, 0, 0, 0, 0, 4, 0), (1, 0, 0, 0, 1, 2, 0), (172, 158, 0, 73, 139, 157, 29), (11, 0, 0, 0, 2, 8, 0), (0, 0, 0, 0, 0, 4, 0), (21, 0, 1, 4, 3, 1, 0), (3, 0, 1, 21, 2, 4, 0), (47, 4, 0, 0, 7, 12, 0), (9, 1, 0, 1, 4, 4, 8), (10, 0, 0, 1, 6, 15, 0), (13, 0, 0, 10, 3, 1, 0), (3, 0, 0, 0, 1, 2, 0), (26, 1, 0, 57, 11, 5, 0), (20, 0, 2, 3, 7, 12, 0), (10, 1, 4, 23, 4, 6, 0), (7, 0, 0, 4, 3, 4, 0), (3, 0, 6, 4, 0, 5, 0), (8, 0, 0, 6, 3, 1, 0), (3, 1, 2, 0, 0, 3, 0), (3416, 319, 0, 242, 792, 1555, 0), (37, 0, 0, 6, 10, 12, 0), (88, 0, 20, 1, 32, 41, 0), (4, 1, 1, 2, 4, 6, 1), (28, 0, 2, 16, 34, 19, 0), (6, 0, 1, 0, 0, 1, 0), (5, 0, 1, 5, 1, 6, 0), (5, 0, 0, 1, 0, 2, 0), (10, 0, 0, 0, 2, 4, 1), (2, 0, 0, 1, 2, 1, 0), (1, 0, 0, 1, 0, 3, 0), (54, 0, 0, 0, 15, 13, 0), (6, 0, 0, 0, 2, 1, 0), (130, 0, 4, 26, 47, 49, 1), (64, 0, 15, 0, 31, 38, 0), (0, 0, 0, 20, 0, 1, 0), (17, 3, 0, 1, 4, 5, 0), (26, 0, 0, 4, 3, 10, 0)]
GLOBS: [(5, [2, 70, 82, 119, 49, 0]), (13, [2, 21, 7, 39, 17, 27, 20, 17, 24, 4, 1, 1, 1, 0]), (5, [2, 3, 3, 3, 2, 0]), (5, [1, 7, 5, 16, 1, 0]), (5, [2, 46, 32, 24, 5, 0]), (9, [6, 10, 8, 7, 5, 65, 8, 2, 1, 0]), (10, [3, 4, 6, 9, 6, 5, 3, 2, 1, 2, 0]), (6, [2, 22, 31, 76, 51, 1, 0]), (9, [11, 25, 30, 22, 11, 4, 2, 2, 3, 0]), (10, [2, 8, 5, 11, 11, 10, 15, 4, 4, 1, 0]), (14, [2, 5, 6, 9, 23, 12, 10, 16, 22, 22, 18, 17, 5, 1, 0]), (3, [1, 4, 2, 0]), (2, [1, 10, 0]), (5, [2, 42, 30, 17, 4, 0]), (5, [2, 8, 2, 4, 1, 0]), (5, [2, 32, 17, 17, 4, 0]), (4, [1, 19, 6, 9, 0]), (6, [1, 13, 13, 27, 2, 2, 0]), (5, [2, 37, 12, 31, 7, 0]), (8, [3, 61, 26, 39, 36, 13, 7, 1, 0]), (7, [2, 21, 7, 14, 3, 1, 2, 0]), (6, [2, 36, 23, 41, 14, 16, 0]), (2, [1, 2, 0]), (11, [4, 14, 42, 16, 17, 18, 20, 24, 16, 20, 12, 0]), (6, [1, 2, 1, 1, 5, 2, 0]), (9, [2, 9, 5, 9, 8, 2, 5, 2, 3, 0]), (8, [1, 1, 1, 2, 1, 1, 2, 1, 0]), (5, [2, 11, 8, 12, 9, 0]), (8, [2, 853, 849, 3285, 1370, 1941, 299, 14, 0]), (9, [2, 30, 19, 31, 32, 26, 6, 6, 4, 0]), (4, [2, 15, 6, 3, 0]), (3, [1, 12, 1, 0]), (5, [2, 2, 5, 4, 5, 0]), (4, [2, 13, 8, 2, 0]), (9, [2, 22, 8, 11, 3, 2, 2, 4, 4, 0]), (3, [2, 8, 7, 0]), (5, [2, 7, 8, 17, 2, 0]), (4, [1, 3, 3, 6, 0]), (2, [1, 1, 0]), (8, [1, 1, 1, 8, 8, 25, 4, 1, 0]), (4, [3, 4, 2, 4, 0]), (4, [2, 3, 1, 2, 0]), (7, [1, 9, 3, 12, 4, 1, 2, 0]), (7, [3, 10, 6, 4, 3, 1, 2, 0]), (2, [1, 3, 0]), (6, [1, 10, 6, 59, 12, 9, 0]), (4, [2, 17, 9, 11, 0]), (13, [2, 5, 1, 7, 3, 3, 3, 4, 5, 2, 21, 1, 1, 0]), (4, [4, 38, 22, 3, 0]), (7, [2, 20, 26, 319, 10, 4, 2, 0]), (3, [1, 3, 2, 0]), (2, [2, 32, 0]), (7, [2, 25, 12, 22, 4, 1, 2, 0]), (4, [2, 8, 3, 10, 0]), (4, [3, 4, 2, 4, 0]), (3, [1, 14, 6, 0]), (5, [1, 5, 1, 1, 2, 0]), (4, [2, 17, 7, 3, 0]), (5, [2, 20, 14, 17, 4, 0]), (7, [4, 18, 20, 41, 19, 5, 2, 0]), (11, [2, 51, 100, 186, 144, 59, 82, 97, 49, 23, 1, 0]), (5, [2, 45, 32, 25, 5, 0]), (4, [2, 4, 4, 7, 0]), (7, [1, 170, 184, 1002, 360, 45, 2, 0]), (2, [1, 1, 0]), (5, [2, 6, 6, 18, 4, 0]), (6, [1, 1, 1, 1, 3, 2, 0]), (4, [1, 25, 5, 2, 0]), (3, [1, 33, 3, 0]), (5, [4, 38, 19, 19, 18, 0]), (9, [2, 58, 40, 62, 27, 10, 6, 2, 2, 0]), (7, [2, 13, 11, 4, 2, 1, 2, 0]), (6, [1, 19, 10, 33, 23, 12, 0]), (3, [1, 21, 12, 0]), (3, [1, 66, 2, 0]), (5, [2, 7, 13, 22, 1, 0]), (5, [1, 2, 1, 1, 4, 0]), (7, [4, 15, 10, 43, 20, 39, 2, 0]), (9, [2, 173, 322, 111, 112, 65, 59, 6, 4, 0]), (14, [2, 8, 7, 144, 353, 424, 282, 155, 39, 22, 16, 27, 1, 2, 0]), (4, [3, 6, 3, 3, 0]), (2, [1, 6, 0]), (6, [3, 5, 5, 15, 4, 1, 0]), (5, [2, 7, 8, 17, 2, 0]), (7, [2, 24, 22, 135, 34, 11, 11, 0]), (12, [3, 11, 17, 81, 82, 71, 51, 27, 14, 3, 1, 2, 0]), (3, [2, 11, 4, 0]), (5, [1, 1, 1, 1, 1, 0]), (12, [4, 107, 216, 501, 592, 263, 320, 175, 194, 66, 27, 9, 0]), (6, [1, 14, 5, 4, 1, 1, 0]), (4, [6, 1, 3, 8, 0]), (4, [2, 6, 6, 26, 0]), (6, [2, 5, 8, 14, 7, 22, 0]), (8, [2, 27, 8, 9, 27, 7, 1, 2, 0]), (6, [4, 3, 4, 13, 2, 2, 0]), (4, [2, 22, 14, 2, 0]), (4, [1, 27, 2, 1, 0]), (4, [1, 3, 2, 3, 0]), (9, [6, 10, 7, 7, 5, 80, 16, 2, 1, 0]), (8, [2, 10, 10, 22, 7, 5, 2, 3, 0]), (5, [6, 5, 5, 38, 4, 0]), (7, [3, 5, 2, 12, 3, 2, 1, 0]), (6, [2, 29, 37, 12, 1, 2, 0]), (3, [1, 11, 3, 0]), (3, [1, 9, 2, 0]), (8, [2, 875, 871, 3340, 1397, 1972, 310, 19, 0]), (5, [2, 33, 19, 21, 4, 0]), (7, [2, 25, 27, 149, 35, 11, 11, 0]), (5, [4, 7, 8, 10, 6, 0]), (11, [3, 8, 17, 40, 42, 22, 17, 4, 4, 6, 3, 0]), (4, [3, 3, 5, 7, 0]), (6, [4, 4, 6, 15, 4, 2, 0]), (2, [1, 7, 0]), (6, [2, 7, 4, 6, 2, 1, 0]), (3, [5, 9, 8, 0]), (5, [3, 5, 3, 2, 1, 0]), (7, [1, 10, 10, 18, 41, 11, 3, 0]), (5, [4, 11, 8, 8, 3, 0]), (7, [2, 43, 33, 130, 31, 17, 2, 0]), (6, [2, 24, 22, 124, 45, 2, 0]), (2, [1, 23, 0]), (6, [3, 19, 18, 29, 11, 1, 0]), (6, [1, 18, 11, 7, 6, 8, 0])]
ARRAY: [([0, 0, 0, 0, 0], [0, 0, 0, 0, 0, 0, 0, 0, 0, 0]), ([0, 0, 0, 0, 0], [0, 0, 0, 0, 0, 0, 0, 0, 0, 0]), ([0, 0, 0, 0, 0], [0, 0, 0, 0, 0, 0, 0, 0, 0, 0]), ([0, 0, 0, 0, 0], [0, 0, 0, 0, 0, 0, 0, 0, 0, 0]), ([0, 0, 0, 0, 0], [0, 0, 0, 0, 0, 0, 0, 0, 0, 0]), ([0, 0, 0, 0, 0], [0, 0, 0, 0, 0, 0, 0, 0, 0, 0]), ([0, 0, 0, 0, 0], [0, 0, 0, 0, 0, 0, 0, 0, 0, 0]), ([0, 0, 0, 0, 0], [0, 0, 0, 0, 0, 0, 0, 0, 0, 0]), ([0, 0, 0, 0, 0], [0, 0, 0, 0, 0, 0, 0, 0, 0, 0]), ([0, 0, 0, 0, 0], [0, 0, 0, 0, 0, 0, 0, 0, 0, 0]), ([0, 0, 0, 0, 0], [0, 0, 0, 0, 0, 0, 0, 0, 0, 0]), ([0, 0, 0, 0, 0], [0, 0, 0, 0, 0, 0, 0, 0, 0, 0]), ([0, 0, 0, 0, 0], [0, 0, 0, 0, 0, 0, 0, 0, 0, 0]), ([0, 0, 0, 0, 0], [0, 0, 0, 0, 0, 0, 0, 0, 0, 0]), ([0, 0, 0, 0, 0], [0, 0, 0, 0, 0, 0, 0, 0, 0, 0]), ([0, 0, 0, 0, 0], [0, 0, 0, 0, 0, 0, 0, 0, 0, 0]), ([0, 0, 0, 0, 0], [0, 0, 0, 0, 0, 0, 0, 0, 0, 0]), ([0, 0, 0, 0, 0], [0, 0, 0, 0, 0, 0, 0, 0, 0, 0]), ([0, 0, 0, 0, 0], [0, 0, 0, 0, 0, 0, 0, 0, 0, 0]), ([0, 0, 0, 0, 0], [0, 0, 0, 0, 0, 0, 0, 0, 0, 0]), ([0, 0, 0, 0, 0], [0, 0, 0, 0, 0, 0, 0, 0, 0, 0]), ([0, 0, 0, 0, 0], [0, 0, 0, 0, 0, 0, 0, 0, 0, 0]), ([0, 0, 0, 0, 0], [0, 0, 0, 0, 0, 0, 0, 0, 0, 0]), ([0, 0, 0, 0, 0], [0, 0, 0, 0, 0, 0, 0, 0, 0, 0]), ([0, 0, 0, 0, 0], [0, 0, 0, 0, 0, 0, 0, 0, 0, 0]), ([0, 0, 0, 0, 0], [0, 0, 0, 0, 0, 0, 0, 0, 0, 0]), ([0, 0, 0, 0, 0], [0, 0, 0, 0, 0, 0, 0, 0, 0, 0]), ([0, 0, 0, 0, 0], [0, 0, 0, 0, 0, 0, 0, 0, 0, 0]), ([0, 0, 0, 0, 0], [0, 0, 0, 0, 0, 0, 0, 0, 0, 0]), ([0, 0, 0, 0, 0], [0, 0, 0, 0, 0, 0, 0, 0, 0, 0]), ([0, 0, 0, 0, 0], [0, 0, 0, 0, 0, 0, 0, 0, 0, 0]), ([0, 0, 0, 0, 0], [0, 0, 0, 0, 0, 0, 0, 0, 0, 0]), ([0, 0, 0, 0, 0], [0, 0, 0, 0, 0, 0, 0, 0, 0, 0]), ([0, 0, 0, 0, 0], [0, 0, 0, 0, 0, 0, 0, 0, 0, 0]), ([0, 0, 0, 0, 0], [0, 0, 0, 0, 0, 0, 0, 0, 0, 0]), ([0, 0, 0, 0, 0], [0, 0, 0, 0, 0, 0, 0, 0, 0, 0]), ([0, 0, 0, 0, 0], [0, 0, 0, 0, 0, 0, 0, 0, 0, 0]), ([0, 0, 0, 0, 0], [0, 0, 0, 0, 0, 0, 0, 0, 0, 0]), ([0, 0, 0, 0, 0], [0, 0, 0, 0, 0, 0, 0, 0, 0, 0]), ([0, 0, 0, 0, 0], [0, 0, 0, 0, 0, 0, 0, 0, 0, 0]), ([0, 0, 0, 0, 0], [0, 0, 0, 0, 0, 0, 0, 0, 0, 0]), ([0, 0, 0, 0, 0], [0, 0, 0, 0, 0, 0, 0, 0, 0, 0]), ([0, 0, 0, 0, 0], [0, 0, 0, 0, 0, 0, 0, 0, 0, 0]), ([0, 0, 0, 0, 0], [0, 0, 0, 0, 0, 0, 0, 0, 0, 0]), ([0, 0, 0, 0, 0], [0, 0, 0, 0, 0, 0, 0, 0, 0, 0]), ([0, 0, 0, 0, 0], [0, 0, 0, 0, 0, 0, 0, 0, 0, 0]), ([0, 0, 0, 0, 0], [0, 0, 0, 0, 0, 0, 0, 0, 0, 0]), ([0, 0, 0, 0, 0], [0, 0, 0, 0, 0, 0, 0, 0, 0, 0]), ([0, 0, 0, 0, 0], [0, 0, 0, 0, 0, 0, 0, 0, 0, 0]), ([0, 0, 0, 0, 0], [0, 0, 0, 0, 0, 0, 0, 0, 0, 0]), ([0, 0, 0, 0, 0], [0, 0, 0, 0, 0, 0, 0, 0, 0, 0]), ([0, 0, 0, 0, 0], [0, 0, 0, 0, 0, 0, 0, 0, 0, 0]), ([0, 0, 0, 0, 0], [0, 0, 0, 0, 0, 0, 0, 0, 0, 0]), ([0, 0, 0, 0, 0], [0, 0, 0, 0, 0, 0, 0, 0, 0, 0]), ([0, 0, 0, 0, 0], [0, 0, 0, 0, 0, 0, 0, 0, 0, 0]), ([0, 0, 0, 0, 0], [0, 0, 0, 0, 0, 0, 0, 0, 0, 0]), ([0, 0, 0, 0, 0], [0, 0, 0, 0, 0, 0, 0, 0, 0, 0]), ([0, 0, 0, 0, 0], [0, 0, 0, 0, 0, 0, 0, 0, 0, 0]), ([0, 0, 0, 0, 0], [0, 0, 0, 0, 0, 0, 0, 0, 0, 0]), ([0, 0, 0, 0, 0], [0, 0, 0, 0, 0, 0, 0, 0, 0, 0]), ([0, 0, 0, 0, 0], [0, 0, 0, 0, 0, 0, 0, 0, 0, 0]), ([0, 0, 0, 0, 0], [0, 0, 0, 0, 0, 0, 0, 0, 0, 0]), ([0, 0, 0, 0, 0], [0, 0, 0, 0, 0, 0, 0, 0, 0, 0]), ([0, 0, 0, 0, 0], [0, 0, 0, 0, 0, 0, 0, 0, 0, 0]), ([0, 0, 0, 0, 0], [0, 0, 0, 0, 0, 0, 0, 0, 0, 0]), ([0, 0, 0, 0, 0], [0, 0, 0, 0, 0, 0, 0, 0, 0, 0]), ([0, 0, 0, 0, 0], [0, 0, 0, 0, 0, 0, 0, 0, 0, 0]), ([0, 0, 0, 0, 0], [0, 0, 0, 0, 0, 0, 0, 0, 0, 0]), ([0, 0, 0, 0, 0], [0, 0, 0, 0, 0, 0, 0, 0, 0, 0]), ([0, 0, 0, 0, 0], [0, 0, 0, 0, 0, 0, 0, 0, 0, 0]), ([0, 0, 0, 0, 0], [0, 0, 0, 0, 0, 0, 0, 0, 0, 0]), ([0, 0, 0, 0, 0], [0, 0, 0, 0, 0, 0, 0, 0, 0, 0]), ([0, 0, 0, 0, 0], [0, 0, 0, 0, 0, 0, 0, 0, 0, 0]), ([0, 0, 0, 0, 0], [0, 0, 0, 0, 0, 0, 0, 0, 0, 0]), ([0, 0, 0, 0, 0], [0, 0, 0, 0, 0, 0, 0, 0, 0, 0]), ([0, 0, 0, 0, 0], [0, 0, 0, 0, 0, 0, 0, 0, 0, 0]), ([0, 0, 0, 0, 0], [0, 0, 0, 0, 0, 0, 0, 0, 0, 0]), ([0, 0, 0, 0, 0], [0, 0, 0, 0, 0, 0, 0, 0, 0, 0]), ([0, 0, 0, 0, 0], [0, 0, 0, 0, 0, 0, 0, 0, 0, 0]), ([0, 0, 0, 0, 0], [0, 0, 0, 0, 0, 0, 0, 0, 0, 0]), ([0, 0, 0, 0, 0], [0, 0, 0, 0, 0, 0, 0, 0, 0, 0]), ([0, 0, 0, 0, 0], [0, 0, 0, 0, 0, 0, 0, 0, 0, 0]), ([0, 0, 0, 0, 0], [0, 0, 0, 0, 0, 0, 0, 0, 0, 0]), ([0, 0, 0, 0, 0], [0, 0, 0, 0, 0, 0, 0, 0, 0, 0]), ([0, 0, 0, 0, 0], [0, 0, 0, 0, 0, 0, 0, 0, 0, 0]), ([0, 0, 0, 0, 0], [0, 0, 0, 0, 0, 0, 0, 0, 0, 0]), ([0, 0, 0, 0, 0], [0, 0, 0, 0, 0, 0, 0, 0, 0, 0]), ([0, 0, 0, 0, 0], [0, 0, 0, 0, 0, 0, 0, 0, 0, 0]), ([0, 0, 0, 0, 0], [0, 0, 0, 0, 0, 0, 0, 0, 0, 0]), ([0, 0, 0, 0, 0], [0, 0, 0, 0, 0, 0, 0, 0, 0, 0]), ([0, 0, 0, 0, 0], [0, 0, 0, 0, 0, 0, 0, 0, 0, 0]), ([0, 0, 0, 0, 0], [0, 0, 0, 0, 0, 0, 0, 0, 0, 0]), ([0, 0, 0, 0, 0], [0, 0, 0, 0, 0, 0, 0, 0, 0, 0]), ([0, 0, 0, 0, 0], [0, 0, 0, 0, 0, 0, 0, 0, 0, 0]), ([0, 0, 0, 0, 0], [0, 0, 0, 0, 0, 0, 0, 0, 0, 0]), ([0, 0, 0, 0, 0], [0, 0, 0, 0, 0, 0, 0, 0, 0, 0]), ([0, 0, 0, 0, 0], [0, 0, 0, 0, 0, 0, 0, 0, 0, 0]), ([0, 0, 0, 0, 0], [0, 0, 0, 0, 0, 0, 0, 0, 0, 0]), ([0, 0, 0, 0, 0], [0, 0, 0, 0, 0, 0, 0, 0, 0, 0]), ([0, 0, 0, 0, 0], [0, 0, 0, 0, 0, 0, 0, 0, 0, 0]), ([0, 0, 0, 0, 0], [0, 0, 0, 0, 0, 0, 0, 0, 0, 0]), ([0, 0, 0, 0, 0], [0, 0, 0, 0, 0, 0, 0, 0, 0, 0]), ([0, 0, 0, 0, 0], [0, 0, 0, 0, 0, 0, 0, 0, 0, 0]), ([0, 0, 0, 0, 0], [0, 0, 0, 0, 0, 0, 0, 0, 0, 0]), ([0, 0, 0, 0, 0], [0, 0, 0, 0, 0, 0, 0, 0, 0, 0]), ([0, 0, 0, 0, 0], [0, 0, 0, 0, 0, 0, 0, 0, 0, 0]), ([0, 0, 0, 0, 0], [0, 0, 0, 0, 0, 0, 0, 0, 0, 0]), ([0, 0, 0, 0, 0], [0, 0, 0, 0, 0, 0, 0, 0, 0, 0]), ([0, 0, 0, 0, 0], [0, 0, 0, 0, 0, 0, 0, 0, 0, 0]), ([0, 0, 0, 0, 0], [0, 0, 0, 0, 0, 0, 0, 0, 0, 0]), ([0, 0, 0, 0, 0], [0, 0, 0, 0, 0, 0, 0, 0, 0, 0]), ([0, 0, 0, 0, 0], [0, 0, 0, 0, 0, 0, 0, 0, 0, 0]), ([0, 0, 0, 0, 0], [0, 0, 0, 0, 0, 0, 0, 0, 0, 0]), ([0, 0, 0, 0, 0], [0, 0, 0, 0, 0, 0, 0, 0, 0, 0]), ([0, 0, 0, 0, 0], [0, 0, 0, 0, 0, 0, 0, 0, 0, 0]), ([0, 0, 0, 0, 0], [0, 0, 0, 0, 0, 0, 0, 0, 0, 0]), ([0, 0, 0, 0, 0], [0, 0, 0, 0, 0, 0, 0, 0, 0, 0]), ([0, 0, 0, 0, 0], [0, 0, 0, 0, 0, 0, 0, 0, 0, 0]), ([0, 0, 0, 0, 0], [0, 0, 0, 0, 0, 0, 0, 0, 0, 0]), ([0, 0, 0, 0, 0], [0, 0, 0, 0, 0, 0, 0, 0, 0, 0]), ([0, 0, 0, 0, 0], [0, 0, 0, 0, 0, 0, 0, 0, 0, 0]), ([0, 0, 0, 0, 0], [0, 0, 0, 0, 0, 0, 0, 0, 0, 0]), ([0, 0, 0, 0, 0], [0, 0, 0, 0, 0, 0, 0, 0, 0, 0])]
